{
  "getAftersaleAllStates01": {
    "errno": 0,
    "data": [
      {
        "code": 0,
        "name": "待管理员审核"
      },
      {
        "code": 1,
        "name": "待买家发货"
      },
      {
        "code": 2,
        "name": "买家已发货"
      },
      {
        "code": 3,
        "name": "待店家退款"
      },
      {
        "code": 4,
        "name": "待店家发货"
      },
      {
        "code": 5,
        "name": "店家已发货"
      },
      {
        "code": 6,
        "name": "审核不通过"
      },
      {
        "code": 7,
        "name": "取消"
      },
      {
        "code": 8,
        "name": "已结束"
      }
    ],
    "errmsg": "成功"
  },
  "createAftersale01": {
    "errno": 0,
    "data": {
      "id": "",
      "orderItemId": 1,
      "customerId": 0,
      "shopId": 10,
      "serviceSn": "",
      "type": 0,
      "reason": "for test",
      "conclusion": null,
      "refund": null,
      "quantity": 1,
      "regionId": 0,
      "detail": "this is detailed address",
      "consignee": "testuser",
      "mobile": "12300010001",
      "customerLogSn": null,
      "shopLogSn": null,
      "state": 0,
      "beDeleted": 0
    },
    "errmsg": "成功"
  },
  "createAftersale13": {
    "errno": 504,
    "errmsg": "操作的资源id不存在"
  },
  "createAftersale14": {
    "errno": 504,
    "errmsg": "操作的资源id不存在"
  },
  "getAllAftersale01": {
    "errno": 0,
    "data": {
      "page": 1,
      "pageSize": 3,
      "total": 10,
      "pages": 4,
      "list": []
    },
    "errmsg": "成功"
  },
  "getAftersaleById01": {
    "errno": 0,
    "data": {
      "id": 4,
      "orderItemId": 1,
      "customerId": 0,
      "shopId": 10,
      "serviceSn": "488ee4ec-0db3-4a38-bfa3-ad909f029c3b",
      "type": 0,
      "reason": "for test",
      "conclusion": null,
      "refund": null,
      "quantity": 1,
      "regionId": 0,
      "detail": "this is detailed address",
      "consignee": "testuser",
      "mobile": "12300010001",
      "customerLogSn": null,
      "shopLogSn": null,
      "state": 0,
      "beDeleted": 0
    },
    "errmsg": "成功"
  },
  "getAftersaleById02": {
    "errno": 505,
    "errmsg": "操作的资源id不是自己的对象"
  },
  "getAftersaleById03": {
    "errno": 504,
    "errmsg": "操作的资源id不存在"
  }
}